^C:\USERS\SERGI\DESKTOP\ENTI\2º QUATRI\INFORMATICA GRAFICA\PRACTICA1\X64\RELEASE\INT\IMGUI.OBJ|C:\USERS\SERGI\DESKTOP\ENTI\2º QUATRI\INFORMATICA GRAFICA\PRACTICA1\X64\RELEASE\INT\IMGUI_DEMO.OBJ|C:\USERS\SERGI\DESKTOP\ENTI\2º QUATRI\INFORMATICA GRAFICA\PRACTICA1\X64\RELEASE\INT\IMGUI_DRAW.OBJ|C:\USERS\SERGI\DESKTOP\ENTI\2º QUATRI\INFORMATICA GRAFICA\PRACTICA1\X64\RELEASE\INT\IMGUI_IMPL_SDL_GL3.OBJ|C:\USERS\SERGI\DESKTOP\ENTI\2º QUATRI\INFORMATICA GRAFICA\PRACTICA1\X64\RELEASE\INT\MAIN.OBJ|C:\USERS\SERGI\DESKTOP\ENTI\2º QUATRI\INFORMATICA GRAFICA\PRACTICA1\X64\RELEASE\INT\MY_RENDER_CODE.OBJ|C:\USERS\SERGI\DESKTOP\ENTI\2º QUATRI\INFORMATICA GRAFICA\PRACTICA1\X64\RELEASE\INT\PHYSICS.OBJ|C:\USERS\SERGI\DESKTOP\ENTI\2º QUATRI\INFORMATICA GRAFICA\PRACTICA1\X64\RELEASE\INT\RENDER_PRIMS.OBJ
C:\USERS\SERGI\DESKTOP\ENTI\2º QUATRI\INFORMATICA GRAFICA\PRACTICA1\X64\RELEASE\GL_FRAMEWORK.EXE
C:\USERS\SERGI\DESKTOP\ENTI\2º QUATRI\INFORMATICA GRAFICA\PRACTICA1\X64\RELEASE\GL_FRAMEWORK.PDB
